{
    "FixedFileInfo": {
        "FileVersion": {
            "Major": 0,
            "Minor": 0,
            "Patch": 0,
            "Build": 0
        },
        "ProductVersion": {
            "Major": 1,
            "Minor": 0,
            "Patch": 0,
            "Build": 0
        },
        "FileFlagsMask": "3f",
        "FileFlags ": "00",
        "FileOS": "040004",
        "FileType": "01",
        "FileSubType": "00"
    },
    "StringFileInfo": {
        "Comments": "",
        "CompanyName": "Wiese2",
        "FileDescription": "Steves Gardening Game",
        "FileVersion": "",
        "InternalName": "",
        "LegalCopyright": "Wiese2",
        "LegalTrademarks": "",
        "OriginalFilename": "",
        "PrivateBuild": "",
        "ProductName": "Steves Garden",
        "ProductVersion": "early alpha",
        "SpecialBuild": ""
    },
    "VarFileInfo": {
        "Translation": {
            "LangID": "0409",
            "CharsetID": "04B0"
        }
    },
    "IconPath": "images/icon.ico",
    "ManifestPath": ""
}
